{
    "KPlugin": {
        "Authors": [
            {
                "Email": "mart@kde.org",
                "Name": "Marco Martin",
                "Name[ar]": "Marco Martin",
                "Name[az]": "Marco Martin",
                "Name[ca@valencia]": "Marco Martin",
                "Name[ca]": "Marco Martin",
                "Name[cs]": "Marco Martin",
                "Name[da]": "Marco Martin",
                "Name[de]": "Marco Martin",
                "Name[en_GB]": "Marco Martin",
                "Name[es]": "Marco Martin",
                "Name[eu]": "Marco Martin",
                "Name[fi]": "Marco Martin",
                "Name[fr]": "Marco Martin",
                "Name[hu]": "Marco Martin",
                "Name[ia]": "Marco Martin",
                "Name[id]": "Marco Martin",
                "Name[it]": "Marco Martin",
                "Name[ka]": "მაკრო მარტინი",
                "Name[ko]": "Marco Martin",
                "Name[lt]": "Marco Martin",
                "Name[nl]": "Marco Martin",
                "Name[nn]": "Marco Martin",
                "Name[pa]": "ਮਾਰਕੋ ਮਾਰਟਿਨ",
                "Name[pl]": "Marco Martin",
                "Name[pt]": "Marco Martin",
                "Name[pt_BR]": "Marco Martin",
                "Name[ro]": "Marco Martin",
                "Name[ru]": "Marco Martin",
                "Name[sk]": "Marco Martin",
                "Name[sl]": "Marco Martin",
                "Name[sv]": "Marco Martin",
                "Name[ta]": "மார்க்கோ மார்ட்டின்",
                "Name[tr]": "Marco Martin",
                "Name[uk]": "Marco Martin",
                "Name[vi]": "Marco Martin",
                "Name[x-test]": "xxMarco Martinxx",
                "Name[zh_CN]": "Marco Martin"
            }
        ],
        "Category": "System Information",
        "Description": "An applet that monitors hard disk throughput and input/output",
        "Description[ar]": "بُريْمج يراقب استخدام إنتاجيّة القرص الصلب ودَخْله/خَرْجه",
        "Description[az]": "Sərt Diskdə verilənlərin ötürmələsini və giriş/çıxışını izləyən tətbiq",
        "Description[ca@valencia]": "Una miniaplicació que controla la velocitat de transferència, així com l'entrada/eixida de les dades en el disc dur",
        "Description[ca]": "Una miniaplicació que controla la velocitat de transferència, així com l'entrada/sortida de les dades al disc dur",
        "Description[cs]": "Aplet, jenž monitoruje propustnost disku a vstup/výstup",
        "Description[da]": "En applet som overvåger gennemgang og input/output for harddisken",
        "Description[de]": "Ein Miniprogramm, das den Festplattendurchsatz und die Festplattenein- und -ausgabe überwacht",
        "Description[en_GB]": "An applet that monitors hard disk throughput and input/output",
        "Description[es]": "Una miniaplicación que monitoriza el rendimiento y la entrada/salida del disco duro",
        "Description[eu]": "Disko zurrunaren transferentzia tasa eraginkorra («throughput») eta sarrera/irteera gainbegiratzen dituen aplikaziotxo bat",
        "Description[fi]": "Tarkkailee levyjen suoritustehoa ja siirtomäärää",
        "Description[fr]": "Une applet surveillant le débit des disques durs et leurs entrées / sorties.",
        "Description[hu]": "Egy kisalkalmazás, amely figyeli a merevlemez átvitelét és a bemenetet/kimenetet",
        "Description[ia]": "Un applet que que monitora le prestation (throughput) e ingresso/egresso de disco dur",
        "Description[id]": "Sebuah applet yang memantau lalu-lalang dan input/output hard disk",
        "Description[it]": "Un'applet che controlla le prestazioni e l'uso del disco fisso",
        "Description[ko]": "하드디스크 대역폭 및 I/O 상태를 보여 주는 애플릿",
        "Description[lt]": "Programėlė, kuri stebi disko apkrovą ir įvedimą/išvedimą",
        "Description[nl]": "Een applet die de activiteit van de harde schijf volgt",
        "Description[nn]": "Skjermelement som overvaker dataflyt til og frå harddisk",
        "Description[pa]": "ਹਾਰਡ ਡਿਸਕ ਥਰੂਪੁੱਟ ਅਤੇ ਇੰਪੁੱਟ/ਆਉਟਪੁੱਟ ਦੀ ਨਿਗਰਾਨੀ ਲਈ ਐਪਲਿਟ",
        "Description[pl]": "Monitoruje przepustowość WE/WY dysku twardego",
        "Description[pt]": "Uma 'applet' que vigia o rendimento e o fluxo de entrada-saída do disco",
        "Description[pt_BR]": "Monitora a taxa de transferência e entrada/saída do disco rígido",
        "Description[ro]": "Miniaplicație ce monitorizează traficul de intrare și cel de ieșire pentru discul dur",
        "Description[ru]": "Мониторинг пропускной способности и процессов ввода/вывода жёстких дисков",
        "Description[sk]": "Applet, ktorý monitoruje priepustnosť pevného disku a vstup/výstup",
        "Description[sl]": "Programček, ki nadzoruje prepustnost in vhod/izhod trdega diska",
        "Description[sv]": "Ett miniprogram som övervakar hårddiskprestanda samt in- och utmatning",
        "Description[ta]": "வட்டின் உள்ளீடு/வெளியீடு மற்றும் செயல் வீதம் ஆகியவற்றை கண்காணிக்கும் பிளாஸ்மாய்ட்",
        "Description[tr]": "Sabit disk girdisini/çıktısını izleyen bir uygulamacık",
        "Description[uk]": "Аплет, який стежить за даними, які записуються на жорсткий диск та читаються з жорсткого диска",
        "Description[vi]": "Một tiểu ứng dụng giám sát vào/ra và thông lượng của đĩa cứng",
        "Description[x-test]": "xxAn applet that monitors hard disk throughput and input/outputxx",
        "Description[zh_CN]": "监视硬盘吞吐量和输入输出情况的小程序",
        "EnabledByDefault": true,
        "FormFactors": [
            "desktop"
        ],
        "Icon": "drive-harddisk",
        "Id": "org.kde.plasma.systemmonitor.diskactivity",
        "License": "GPL-2.0+",
        "Name": "Hard Disk Activity",
        "Name[ar]": "نشاط القرص الصلب",
        "Name[az]": "Sərt Disk istifadəsi",
        "Name[ca@valencia]": "Activitat del disc dur",
        "Name[ca]": "Activitat del disc dur",
        "Name[cs]": "Aktivita pevného disku",
        "Name[da]": "Harddisk-aktivitet",
        "Name[de]": "Festplattenaktivität",
        "Name[en_GB]": "Hard Disk Activity",
        "Name[es]": "Actividad del disco duro",
        "Name[et]": "Kõvaketta tegevus",
        "Name[eu]": "Disko zurruneko jarduera",
        "Name[fi]": "Kiintolevyn toiminta",
        "Name[fr]": "Activité des disques durs",
        "Name[hi]": "हार्ड डिस्क गतिविधि",
        "Name[hsb]": "Monitor, kiž pokazuje aktiwitu kruteje tačele",
        "Name[hu]": "Merevlemez-aktivitás",
        "Name[ia]": "Activitate del disco dur",
        "Name[id]": "Aktivitas Hard Disk",
        "Name[it]": "Attività disco fisso",
        "Name[ka]": "მყარი დისკის აქტივობა",
        "Name[ko]": "하드디스크 활동",
        "Name[lt]": "Standžiojo disko veikla",
        "Name[ml]": "ഹാർഡ് ഡിസ്ക് പ്രവർത്തനം",
        "Name[nl]": "Activiteit van de vaste schijf",
        "Name[nn]": "Harddiskaktivitet",
        "Name[pa]": "ਹਾਰਡ ਡਿਸਕ ਸਰਗਰਮੀ",
        "Name[pl]": "Ruch na dysku twardym",
        "Name[pt]": "Actividade do Disco Rígido",
        "Name[pt_BR]": "Atividade do disco rígido",
        "Name[ro]": "Activitate disc dur",
        "Name[ru]": "Загрузка дисковой подсистемы",
        "Name[sk]": "Aktivita pevného disku",
        "Name[sl]": "Nadzornik aktivnosti trdega diska",
        "Name[sv]": "Hårddiskaktivitet",
        "Name[ta]": "வட்டு செயல்பாட்டு",
        "Name[tg]": "Фаъолияти диски компютерӣ",
        "Name[tr]": "Sabit Disk Etkinliği",
        "Name[uk]": "Робота із жорстким диском",
        "Name[vi]": "Hoạt động của đĩa cứng",
        "Name[x-test]": "xxHard Disk Activityxx",
        "Name[zh_CN]": "磁盘活动",
        "Name[zh_TW]": "硬碟活動",
        "ServiceTypes": [
            "Plasma/Applet"
        ],
        "Version": "1.0",
        "Website": "https://www.kde.org/plasma-desktop"
    },
    "X-Plasma-API": "declarativeappletscript",
    "X-Plasma-MainScript": "ui/main.qml",
    "X-Plasma-Provides": [
        "org.kde.plasma.systemmonitor"
    ],
    "X-Plasma-RootPath": "org.kde.plasma.systemmonitor",
    "X-Plasma-StandAloneApp": true
}
